{
    "boards" : [
  {
    "governanceBoardName":"CDSI Oversight Committee, Conservation Operations",
    "programCodeFPI":"015-027",
    "programName":"Conservation Operations",
    "bureauCode":53,
    "cioInvolvementDescription":"The OCIO is a voting member of the CDSI Oversight Committee",
    "agencyName":"Natural Resources Conservation Service"
  },
  {
    "governanceBoardName":"Senior Management Oversight Committee (SMOC)",
    "bureauCode":49,
    "cioInvolvementDescription":"The OCIO is a voting member of the FSA SMOC.",
    "agencyName":"Farm Service Agency"
  },
  {
    "governanceBoardName":"Executive Steering Committee",
    "bureauCode":55,
    "cioInvolvementDescription":"The OCIO is a non-voting member of the RD ESC.",
    "agencyName":"Rural Development"
  },
  {
    "governanceBoardName":"NRCS Investment Review Board",
    "bureauCode":53,
    "cioInvolvementDescription":"The OCIO is a non-voting member of the NRCS IRB.",
    "agencyName":"Natural Resources Conservation Service"
  },
  {
    "governanceBoardName":"Executive Information Technology Investment Review Board",
    "bureauCode":45,
    "cioInvolvementDescription":"The OCIO is a non-voting member of the AMS EITIRB.",
    "agencyName":"Agriculture Marketing Service"
  },
  {
    "governanceBoardName":"Farm Service Agency Investment Review Board",
    "bureauCode":49,
    "cioInvolvementDescription":"The OCIO is a non-voting member of the FSA IRB.",
    "agencyName":"Farm Service Agency"
  },
  {
    "governanceBoardName":"GIPSA Enterprise Technology Investment Review Board ",
    "bureauCode":37,
    "cioInvolvementDescription":"The OCIO is a participant of the GIPSA ETIRB.",
    "agencyName":"Grain Inspection, Packers and Stockyards Administration"
  },
  {
    "governanceBoardName":"Foreign Agricultural Service Investment Review Board",
    "bureauCode":68,
    "cioInvolvementDescription":"The OCIO is a non-voting member of the FAS IRB.",
    "agencyName":"Foreign Agricultural Service"
  },
  {
    "governanceBoardName":"National Agricultural Statistics Service Investment Review Board",
    "bureauCode":15,
    "cioInvolvementDescription":"The OCIO is a non-voting member of the NASS IRB.",
    "agencyName":"National Agricultural Statistics Service"
  },
  {
    "governanceBoardName":"Office of the Chief Economist Investment Review Board",
    "bureauCode":13,
    "cioInvolvementDescription":"The OCIO is a non-voting member of the OCE IRB.",
    "agencyName":"Office of the Chief Economist"
  },
  {
    "governanceBoardName":"Rural Development Business Systems Council",
    "bureauCode":55,
    "cioInvolvementDescription":"The OCIO is a non-voting member of the RD BSC.",
    "agencyName":"Rural Development"
  },
  {
    "governanceBoardName":"Risk Management Agency Information Resources Management Review Board",
    "bureauCode":47,
    "cioInvolvementDescription":"The OCIO is a non-voting member of the RMA IRMRB.",
    "agencyName":"Risk Management Agency"
  },
  {
    "governanceBoardName":"Animal and Plant Health Inspection Service Investment Review Board",
    "bureauCode":32,
    "cioInvolvementDescription":"The OCIO is a non-voting member of the APHIS IRB.",
    "agencyName":"Animal and Plant Health Inspection Service"
  },
  {
    "governanceBoardName":"Food, Nutrition and Consumer Services IT Investment Review Board",
    "bureauCode":84,
    "cioInvolvementDescription":"The OCIO is a non-voting member of the FNCS ITIRB.",
    "agencyName":"Food, Nutrition and Consumer Services"
  },
  {
    "governanceBoardName":"Economic Research Service Investment Review Board (IRB)",
    "bureauCode":13,
    "cioInvolvementDescription":"The OCIO is a non-voting member.",
    "agencyName":"Economic Research Service"
  },
  {
    "governanceBoardName":"Office of the General Council Investment Review Board (IRB)",
    "bureauCode":10,
    "cioInvolvementDescription":"The OCIO is a non-voting member.",
    "agencyName":"Office of the General Counsel"
  },
  {
    "governanceBoardName":"Forest Service Investment Review Direction Board (IRDB)",
    "bureauCode":96,
    "cioInvolvementDescription":"The OCIO is a non-voting member.",
    "agencyName":"Forest Service"
  },
  {
    "governanceBoardName":"NIFA Information Technology Investment Review Board (IT-IRB)",
    "bureauCode":20,
    "cioInvolvementDescription":"The OCIO is a non-voting member.",
    "agencyName":"National Institute of Food and Agriculture"
  },
  {
    "governanceBoardName":"FSIS Management Council",
    "bureauCode":35,
    "cioInvolvementDescription":"The OCIO is a non-voting member.",
    "agencyName":"Food Safety and Inspection Services"
  },
  {
    "governanceBoardName":"ARS Information Technology Advisory Group (ITAG)",
    "bureauCode":18,
    "cioInvolvementDescription":"The OCIO is a non-voting member.",
    "agencyName":"Agricultural Research Service"
  }
]
}